<svg width="73" height="97" viewBox="0 0 73 97" fill="none" xmlns="http://www.w3.org/2000/svg">
    <path d="M36.4989 0C16.5535 0 0.327026 16.233 0.327026 36.1863C0.327026 65.9153 32.8984 94.9432 34.2855 96.1646C34.9178 96.7215 35.7082 97.0004 36.4989 97.0004C37.2896 97.0004 38.0799 96.7218 38.7126 96.1646C40.099 94.9435 72.6707 65.9156 72.6707 36.1863C72.6707 16.233 56.4443 0 36.4989 0ZM36.4989 26.0277C42.0393 26.0277 46.5467 30.5847 46.5467 36.1863C46.5467 41.7878 42.0393 46.3448 36.4989 46.3448C30.9584 46.3448 26.4511 41.7878 26.4511 36.1863C26.4511 30.5847 30.9584 26.0277 36.4989 26.0277Z" fill="#091627"/>
</svg>
