<svg width="1920" height="193" viewBox="0 0 1920 193" fill="none" preserveAspectRatio="none" xmlns="http://www.w3.org/2000/svg">
    <path fill-rule="evenodd" clip-rule="evenodd" d="M0 0V194H1920V0C1427.26 2.49463 1179.1 34.0936 960 193.5C740.899 34.0936 492.739 2.49463 0 0Z" fill="#F2F2F2"/>
</svg>
